<?xml version="1.0" encoding="utf-8"?>
<!-- Generator: Adobe Illustrator 18.0.0, SVG Export Plug-In . SVG Version: 6.00 Build 0)  -->
<!DOCTYPE svg PUBLIC "-//W3C//DTD SVG 1.1//EN" "http://www.w3.org/Graphics/SVG/1.1/DTD/svg11.dtd">
<svg version="1.1" id="Layer_1" xmlns="http://www.w3.org/2000/svg" xmlns:xlink="http://www.w3.org/1999/xlink" x="0px" y="0px"
	 viewBox="0 0 400 165.3" enable-background="new 0 0 400 165.3" xml:space="preserve">
<g>
	<path fill="#FFFFFF" d="M1-0.5v103c0.1,0,0.2-0.1,0.2-0.1c0.1-0.1,2.6-0.9,3.9-1.9c0.7-0.4,36.6-39.5,37.2-40.1
		c0.2-0.2,0.4-0.1,0.5,0c0.1,0.3-0.4,37.5-0.4,38c0,0.6,0.1,1.4,1.1,1.9c0.9,0.4,4.5,2,5,2.2c0.2,0.1,0.1,0.3-0.2,0.3H28.2
		c0,0-0.3-0.1-0.1-0.2c0.2-0.1,6.7-2.2,7.2-2.3c1-0.3,1.2-0.6,1.3-2.1c0-1.5,0.4-10.2,0.4-10.8c0-0.5,0.2-1.6-1.3-1.7
		c-0.7-0.1-2.9-0.2-5.2-0.3c-2.7-0.1-5.6,0-6.1,0c-1.6,0-1.9,0.1-2.8,0.8C21,86.7,11.4,98.7,11,99.2c-0.4,0.6-0.3,1.2,0.7,1.5
		c1,0.3,7.2,1.6,8.6,1.9c0.2,0,0.1,0.3-0.1,0.3H1.3c0,0-0.1,0-0.3,0v62.1h165.4V-0.5H1z M71.3,63.8c-1,0.4-1.3,1-1.6,1.7
		c-0.2,0.6-7.8,32.6-7.9,33.2c-0.1,0.7-0.2,1.3,0.7,1.7c0.9,0.3,5.2,1.9,5.5,2c0.4,0.1,0.3,0.4-0.1,0.4H49.3c-0.4,0-0.5-0.1-0.2-0.3
		c0.4-0.2,4.5-1.6,4.9-1.8c0.4-0.2,1.5-0.6,1.8-1.5c0.2-0.7,8-32.9,8.1-33.5c0.2-0.8,0.1-1.6-0.8-1.9c-0.5-0.2-5.3-1.8-5.4-1.9
		c-0.3-0.1-0.3-0.3,0-0.3h19.5c0.2,0,0.4,0.2,0.1,0.2c-0.3,0.1-3.5,1-3.8,1.1C73,63.2,71.9,63.5,71.3,63.8 M109,100.2
		c-0.5,0.2-7.1,2.7-13.4,2.9c-16.2,0.4-22.1-10.9-19.3-21.2c1.5-5.4,5-10.5,9.5-14.1c2.6-2,10.3-6.8,20.3-6.8
		c1.9,0,6.7,0.2,10.3,1.2c1.7,0.5,1.5,1.4,1.3,2.1c-0.1,0.4-3.9,11.8-4,12.1c-0.2,0.4-0.5,0.4-0.5,0c0-0.2,0.5-10.4,0.4-10.8
		c0-1.1,0-1.7-1.2-2.1c-1.7-0.5-9.6-1.2-15.5,1.5C87,69.6,81.2,80.2,82.4,88.6c0.9,7,6.5,12.7,15.3,12.9c2.8,0.1,4.8-0.3,5.4-0.5
		c0.9-0.3,1-0.5,1.2-1c0.2-0.5,1.7-6.7,1.7-7c0.1-0.3,0.4-1.1-0.5-1.4c-0.9-0.2-8.9-2.4-9.3-2.5c-0.4-0.1-0.2-0.3,0.1-0.3h15
		c0.6,0,2.2-0.1,1.8,1.3c-0.4,1.5-2.7,8.7-2.9,9.2C110,99.8,109.6,100,109,100.2 M158.4,102.8h-20.1c0,0-0.3-0.1-0.1-0.2
		c0.2-0.1,6.7-2.2,7.2-2.3c1-0.3,1.3-0.6,1.3-2.1c0-1.5,0.4-10.2,0.4-10.8c0-0.5,0.2-1.6-1.3-1.7c-0.7-0.1-2.9-0.2-5.2-0.3
		c-2.8-0.1-5.6,0-6.1,0c-1.5,0-1.9,0.1-2.8,0.8c-0.7,0.5-10.3,12.5-10.7,13c-0.4,0.6-0.3,1.2,0.7,1.5c1.1,0.3,7.2,1.6,8.6,1.9
		c0.2,0,0.2,0.3-0.1,0.3h-18.9c-0.2,0-0.2-0.2,0-0.3c0.1-0.1,2.6-1,3.9-2c0.7-0.4,36.6-39.5,37.2-40.1c0.2-0.2,0.4-0.1,0.5,0
		c0.1,0.3-0.4,37.5-0.4,38c0.1,0.6,0.1,1.4,1.1,1.9c1,0.4,4.5,2,5,2.2C158.8,102.6,158.7,102.8,158.4,102.8 M24.8,82.3
		c0.6-0.6,10.8-11.7,11.2-12.1c0.7-0.8,1.4-0.8,1.4,0.3c0,1.2-0.2,11.4-0.2,11.9c0,0.8-0.3,1.3-1.7,1.3c-1.4,0-9.8,0-9.8,0
		C24.2,83.7,24.2,82.9,24.8,82.3 M147.5,70.5c0,1.2-0.2,11.4-0.2,11.9c0,0.8-0.4,1.3-1.7,1.3c-1.4,0-9.8,0-9.8,0
		c-1.5,0-1.5-0.9-0.9-1.5c0.6-0.6,10.8-11.7,11.2-12.1C146.8,69.4,147.5,69.4,147.5,70.5"/>
	<path fill="#FFFFFF" d="M180.9-0.5v165.2H401V-0.5H180.9z M215.4,135.8l7.3-11.8l7.3,11.8H215.4z M237.2,125.6l11.5-18.6l11.5,18.6
		H237.2z M245.4,74.2l11.5-18.6l11.5,18.6H245.4z M275.8,26.5l7.3,11.8h-14.6L275.8,26.5z M270.2,93.1l11.5-18.6l11.5,18.6H270.2z"
		/>
</g>
</svg>
