<?xml version="1.0" encoding="utf-8"?>
<!-- Generator: Adobe Illustrator 18.0.0, SVG Export Plug-In . SVG Version: 6.00 Build 0)  -->
<!DOCTYPE svg PUBLIC "-//W3C//DTD SVG 1.1//EN" "http://www.w3.org/Graphics/SVG/1.1/DTD/svg11.dtd">
<svg version="1.1" id="Layer_1" xmlns="http://www.w3.org/2000/svg" xmlns:xlink="http://www.w3.org/1999/xlink" x="0px" y="0px"
	 viewBox="0 0 400 398" enable-background="new 0 0 400 398" xml:space="preserve">
<polygon fill="#4E4C4E" points="362.1,360 201,398 40,360 0,196.9 40,37.9 201,0 362.1,37.9 400,199 "/>
<path fill="#FFFFFF" d="M267.6,260.9c1.2-0.7,2.2-1.3,3.1-2c3.3-2.3,6.5-4.6,9.8-6.9c4.7-3.3,9.4-6.6,14.1-9.8
	c2.9-1.9,6-1.7,8.4,0.9c1.9,2,3.5,4.2,5,6.5c2,3.3,1.5,6-1.3,8.6c-1.3,1.2-2.7,2.1-4.1,3.1c-12.5,8.5-25,16.9-37.5,25.4
	c-1.3,0.9-2.8,1.7-4.3,2.3c-2.1,0.9-4,0.3-5.5-1.2c-1.1-1-2.1-2-2.9-3.2c-4.3-5.9-8.6-11.7-12.8-17.6c-3.5-4.9-7-9.7-10.5-14.6
	c-2.3-3.1-2.6-6.5-1-10.1c1-2.3,2.1-4.6,3.1-6.9c3.8-8.5,20.7-47.9,26.2-59.9c4-8.8,8-17.5,12-26.3c0.9-1.9,1.7-3.8,2.5-5.7
	c-2-1.7-3.9-3.2-5.7-4.8c-0.8-0.7-1.5-0.8-2.5-0.4c-1.4,0.7-2.8,1.2-4.3,1.8c-4.4,1.8-8.7,3.6-13.1,5.3c-1.3,0.5-2.1,1.3-2.8,2.7
	c-4.2,9.7-8.5,19.3-12.8,28.9c-4.3,9.7-40.6,93.7-45.9,105.4c-0.5,1.2-1.2,2.3-1.9,3.3c-1.6,2-3.8,2.5-6,1.2c-0.9-0.5-1.8-1.2-2.6-2
	c-3.9-4.1-7.8-8.1-11.6-12.3c-1.9-2.1-3.8-4.2-5.5-6.4c-1.7-2.1-2-4.6-1.2-7.2c0.3-0.9,0.6-1.9,1-2.8c3.5-7.8,7-15.6,10.5-23.4
	c2.7-5.9,21-48.8,24.4-56.5c3.6-8,7.3-16,10.9-24.1c1.3-2.8,2.5-5.6,3.8-8.7c-1.7-1.5-3.4-2.8-4.9-4.3c-1.2-1.2-2.3-1.4-3.9-0.7
	c-5.6,2.4-11.2,4.7-16.9,6.9c-0.9,0.4-1.5,0.9-1.9,1.8c-0.4,0.8-0.8,1.7-1.2,2.5c-1.8,4.1-3.6,8.2-5.4,12.2
	c-3.1,7-6.2,13.9-9.3,20.9c-3.2,7.3-20.7,49.4-23.7,56.3c-3.1,7-6.1,14-9.2,21c-3.2,7.2-6.4,14.5-9.6,21.7c-0.5,1.2-1.2,2.4-2.1,3.5
	c-2,2.6-5.2,2.8-7.7,0.8c-0.6-0.5-1.1-1-1.6-1.5c-4.1-4.5-8.2-9-12.2-13.5c-2.5-2.8-5.2-5.6-6.4-9.3v-2.7c1.4-3.2,2.8-6.5,4.2-9.7
	c3.3-7.4,29.4-68.1,32.6-75.4c4.3-9.7,8.7-19.4,13.1-29.1c0.8-1.8,1.6-3.6,2.4-5.6c-0.7,0-1.2,0-1.6,0.1c-3.4,0.8-6.9,1.6-10.3,2.3
	c-1.7,0.4-3.4,0.6-5.1,0.8c-4.2,0.5-5.7-3.2-5-6.2c0.1-0.5,0.3-1,0.5-1.5c1-2.5,2-5.1,3.1-7.6c1.7-3.8,4.5-6.3,8.6-7.2
	c4.8-1,9.6-2,14.4-3c10.9-2.3,21.8-4.6,32.7-7c0.9-0.2,1.9-0.6,2.8-0.9h3.8c2.1,0.9,3.5,2.3,3.5,4.7c0,1.1-0.2,2.2-0.6,3.2
	c-0.5,1.5-1.3,3-1.9,4.5c-0.3,0.7-0.4,1.4-0.7,2.3c0.6-0.1,0.9-0.1,1.1-0.2c6.9-2.5,13.9-4.9,20.8-7.4c2.8-1,5.6-1.8,8.4-0.1
	c1.1,0.7,2.1,1.4,3,2.3c3.4,3.4,6.9,6.7,10.2,10.3c1.5,1.6,2.8,1.7,4.8,1c12.9-4.6,25.9-8.9,38.8-13.6c4.9-1.8,8.7-0.8,12.1,2.8
	c0.5,0.5,1,1,1.5,1.6c3.9,4,7.8,8.1,11.8,12.1c2.2,2.3,4.5,4.5,6.7,6.8c2.5,2.7,3.5,5.6,1.9,9.2c-2.6,5.6-4.9,11.3-7.4,17
	c-3.3,7.4-29.8,69-34.3,79c-1.5,3.3-2.9,6.6-4.4,10.1C264,256.4,265.5,258.9,267.6,260.9z"/>
</svg>
